{
  "frames": {
    "coin_super_0005.png": {
      "frame": {
        "x": 0,
        "y": 0,
        "w": 128,
        "h": 76
      },
      "rotated": false,
      "trimmed": true,
      "spriteSourceSize": {
        "x": 0,
        "y": 26,
        "w": 128,
        "h": 76
      },
      "sourceSize": {
        "w": 128,
        "h": 128
      },
      "pivot": {
        "x": 0.5,
        "y": 0.5
      }
    },
    "coin_super_0008.png": {
      "frame": {
        "x": 0,
        "y": 76,
        "w": 128,
        "h": 76
      },
      "rotated": false,
      "trimmed": true,
      "spriteSourceSize": {
        "x": 0,
        "y": 26,
        "w": 128,
        "h": 76
      },
      "sourceSize": {
        "w": 128,
        "h": 128
      },
      "pivot": {
        "x": 0.5,
        "y": 0.5
      }
    },
    "coin_super_0017.png": {
      "frame": {
        "x": 0,
        "y": 152,
        "w": 128,
        "h": 76
      },
      "rotated": false,
      "trimmed": true,
      "spriteSourceSize": {
        "x": 0,
        "y": 26,
        "w": 128,
        "h": 76
      },
      "sourceSize": {
        "w": 128,
        "h": 128
      },
      "pivot": {
        "x": 0.5,
        "y": 0.5
      }
    },
    "coin_super_0020.png": {
      "frame": {
        "x": 0,
        "y": 228,
        "w": 128,
        "h": 76
      },
      "rotated": false,
      "trimmed": true,
      "spriteSourceSize": {
        "x": 0,
        "y": 26,
        "w": 128,
        "h": 76
      },
      "sourceSize": {
        "w": 128,
        "h": 128
      },
      "pivot": {
        "x": 0.5,
        "y": 0.5
      }
    },
    "coin_super_0006.png": {
      "frame": {
        "x": 0,
        "y": 304,
        "w": 127,
        "h": 76
      },
      "rotated": false,
      "trimmed": true,
      "spriteSourceSize": {
        "x": 0,
        "y": 26,
        "w": 127,
        "h": 76
      },
      "sourceSize": {
        "w": 128,
        "h": 128
      },
      "pivot": {
        "x": 0.5,
        "y": 0.5
      }
    },
    "coin_super_0007.png": {
      "frame": {
        "x": 127,
        "y": 304,
        "w": 127,
        "h": 76
      },
      "rotated": false,
      "trimmed": true,
      "spriteSourceSize": {
        "x": 0,
        "y": 26,
        "w": 127,
        "h": 76
      },
      "sourceSize": {
        "w": 128,
        "h": 128
      },
      "pivot": {
        "x": 0.5,
        "y": 0.5
      }
    },
    "coin_super_0016.png": {
      "frame": {
        "x": 128,
        "y": 0,
        "w": 126,
        "h": 76
      },
      "rotated": false,
      "trimmed": true,
      "spriteSourceSize": {
        "x": 1,
        "y": 26,
        "w": 126,
        "h": 76
      },
      "sourceSize": {
        "w": 128,
        "h": 128
      },
      "pivot": {
        "x": 0.5,
        "y": 0.5
      }
    },
    "coin_super_0018.png": {
      "frame": {
        "x": 128,
        "y": 76,
        "w": 126,
        "h": 76
      },
      "rotated": false,
      "trimmed": true,
      "spriteSourceSize": {
        "x": 1,
        "y": 26,
        "w": 126,
        "h": 76
      },
      "sourceSize": {
        "w": 128,
        "h": 128
      },
      "pivot": {
        "x": 0.5,
        "y": 0.5
      }
    },
    "coin_super_0019.png": {
      "frame": {
        "x": 128,
        "y": 152,
        "w": 126,
        "h": 76
      },
      "rotated": false,
      "trimmed": true,
      "spriteSourceSize": {
        "x": 1,
        "y": 26,
        "w": 126,
        "h": 76
      },
      "sourceSize": {
        "w": 128,
        "h": 128
      },
      "pivot": {
        "x": 0.5,
        "y": 0.5
      }
    },
    "coin_super_0021.png": {
      "frame": {
        "x": 128,
        "y": 228,
        "w": 126,
        "h": 76
      },
      "rotated": false,
      "trimmed": true,
      "spriteSourceSize": {
        "x": 1,
        "y": 26,
        "w": 126,
        "h": 76
      },
      "sourceSize": {
        "w": 128,
        "h": 128
      },
      "pivot": {
        "x": 0.5,
        "y": 0.5
      }
    },
    "coin_super_0004.png": {
      "frame": {
        "x": 0,
        "y": 380,
        "w": 124,
        "h": 76
      },
      "rotated": false,
      "trimmed": true,
      "spriteSourceSize": {
        "x": 2,
        "y": 26,
        "w": 124,
        "h": 76
      },
      "sourceSize": {
        "w": 128,
        "h": 128
      },
      "pivot": {
        "x": 0.5,
        "y": 0.5
      }
    },
    "coin_super_0009.png": {
      "frame": {
        "x": 124,
        "y": 380,
        "w": 124,
        "h": 76
      },
      "rotated": false,
      "trimmed": true,
      "spriteSourceSize": {
        "x": 2,
        "y": 26,
        "w": 124,
        "h": 76
      },
      "sourceSize": {
        "w": 128,
        "h": 128
      },
      "pivot": {
        "x": 0.5,
        "y": 0.5
      }
    },
    "coin_super_0015.png": {
      "frame": {
        "x": 248,
        "y": 380,
        "w": 122,
        "h": 76
      },
      "rotated": false,
      "trimmed": true,
      "spriteSourceSize": {
        "x": 3,
        "y": 26,
        "w": 122,
        "h": 76
      },
      "sourceSize": {
        "w": 128,
        "h": 128
      },
      "pivot": {
        "x": 0.5,
        "y": 0.5
      }
    },
    "coin_super_0022.png": {
      "frame": {
        "x": 254,
        "y": 0,
        "w": 122,
        "h": 76
      },
      "rotated": false,
      "trimmed": true,
      "spriteSourceSize": {
        "x": 3,
        "y": 26,
        "w": 122,
        "h": 76
      },
      "sourceSize": {
        "w": 128,
        "h": 128
      },
      "pivot": {
        "x": 0.5,
        "y": 0.5
      }
    },
    "coin_super_0003.png": {
      "frame": {
        "x": 254,
        "y": 76,
        "w": 118,
        "h": 76
      },
      "rotated": false,
      "trimmed": true,
      "spriteSourceSize": {
        "x": 5,
        "y": 26,
        "w": 118,
        "h": 76
      },
      "sourceSize": {
        "w": 128,
        "h": 128
      },
      "pivot": {
        "x": 0.5,
        "y": 0.5
      }
    },
    "coin_super_0010.png": {
      "frame": {
        "x": 254,
        "y": 152,
        "w": 118,
        "h": 76
      },
      "rotated": false,
      "trimmed": true,
      "spriteSourceSize": {
        "x": 5,
        "y": 26,
        "w": 118,
        "h": 76
      },
      "sourceSize": {
        "w": 128,
        "h": 128
      },
      "pivot": {
        "x": 0.5,
        "y": 0.5
      }
    },
    "coin_super_0014.png": {
      "frame": {
        "x": 254,
        "y": 228,
        "w": 116,
        "h": 76
      },
      "rotated": false,
      "trimmed": true,
      "spriteSourceSize": {
        "x": 6,
        "y": 26,
        "w": 116,
        "h": 76
      },
      "sourceSize": {
        "w": 128,
        "h": 128
      },
      "pivot": {
        "x": 0.5,
        "y": 0.5
      }
    },
    "coin_super_0023.png": {
      "frame": {
        "x": 254,
        "y": 304,
        "w": 116,
        "h": 76
      },
      "rotated": false,
      "trimmed": true,
      "spriteSourceSize": {
        "x": 6,
        "y": 26,
        "w": 116,
        "h": 76
      },
      "sourceSize": {
        "w": 128,
        "h": 128
      },
      "pivot": {
        "x": 0.5,
        "y": 0.5
      }
    },
    "coin_super_0002.png": {
      "frame": {
        "x": 370,
        "y": 228,
        "w": 112,
        "h": 76
      },
      "rotated": false,
      "trimmed": true,
      "spriteSourceSize": {
        "x": 8,
        "y": 26,
        "w": 112,
        "h": 76
      },
      "sourceSize": {
        "w": 128,
        "h": 128
      },
      "pivot": {
        "x": 0.5,
        "y": 0.5
      }
    },
    "coin_super_0011.png": {
      "frame": {
        "x": 376,
        "y": 0,
        "w": 112,
        "h": 76
      },
      "rotated": false,
      "trimmed": true,
      "spriteSourceSize": {
        "x": 8,
        "y": 26,
        "w": 112,
        "h": 76
      },
      "sourceSize": {
        "w": 128,
        "h": 128
      },
      "pivot": {
        "x": 0.5,
        "y": 0.5
      }
    },
    "coin_super_0013.png": {
      "frame": {
        "x": 372,
        "y": 76,
        "w": 112,
        "h": 76
      },
      "rotated": false,
      "trimmed": true,
      "spriteSourceSize": {
        "x": 8,
        "y": 26,
        "w": 112,
        "h": 76
      },
      "sourceSize": {
        "w": 128,
        "h": 128
      },
      "pivot": {
        "x": 0.5,
        "y": 0.5
      }
    },
    "coin_super_0024.png": {
      "frame": {
        "x": 372,
        "y": 152,
        "w": 112,
        "h": 76
      },
      "rotated": false,
      "trimmed": true,
      "spriteSourceSize": {
        "x": 8,
        "y": 26,
        "w": 112,
        "h": 76
      },
      "sourceSize": {
        "w": 128,
        "h": 128
      },
      "pivot": {
        "x": 0.5,
        "y": 0.5
      }
    },
    "coin_super_0001.png": {
      "frame": {
        "x": 370,
        "y": 304,
        "w": 110,
        "h": 76
      },
      "rotated": false,
      "trimmed": true,
      "spriteSourceSize": {
        "x": 9,
        "y": 26,
        "w": 110,
        "h": 76
      },
      "sourceSize": {
        "w": 128,
        "h": 128
      },
      "pivot": {
        "x": 0.5,
        "y": 0.5
      }
    },
    "coin_super_0012.png": {
      "frame": {
        "x": 370,
        "y": 380,
        "w": 110,
        "h": 76
      },
      "rotated": false,
      "trimmed": true,
      "spriteSourceSize": {
        "x": 9,
        "y": 26,
        "w": 110,
        "h": 76
      },
      "sourceSize": {
        "w": 128,
        "h": 128
      },
      "pivot": {
        "x": 0.5,
        "y": 0.5
      }
    }
  },
  "meta": {
    "app": "http://free-tex-packer.com",
    "version": "0.6.5",
    "image": "coin_super.png",
    "format": "RGBA8888",
    "size": {
      "w": 488,
      "h": 456
    },
    "scale": 1
  }
}