{
	"textures": [
		{
			"image": "GOL.png",
			"format": "RGBA8888",
			"size": {
				"w": 778,
				"h": 233
			},
			"scale": 1,
			"frames": [
				{
					"filename": "GOL7.png",
					"rotated": false,
					"trimmed": false,
					"sourceSize": {
						"w": 131,
						"h": 115
					},
					"spriteSourceSize": {
						"x": 0,
						"y": 0,
						"w": 131,
						"h": 115
					},
					"frame": {
						"x": 1,
						"y": 1,
						"w": 131,
						"h": 115
					}
				},
				{
					"filename": "GOL8.png",
					"rotated": false,
					"trimmed": false,
					"sourceSize": {
						"w": 131,
						"h": 114
					},
					"spriteSourceSize": {
						"x": 0,
						"y": 0,
						"w": 131,
						"h": 114
					},
					"frame": {
						"x": 1,
						"y": 118,
						"w": 131,
						"h": 114
					}
				},
				{
					"filename": "GOL3.png",
					"rotated": false,
					"trimmed": false,
					"sourceSize": {
						"w": 130,
						"h": 114
					},
					"spriteSourceSize": {
						"x": 0,
						"y": 0,
						"w": 130,
						"h": 114
					},
					"frame": {
						"x": 134,
						"y": 1,
						"w": 130,
						"h": 114
					}
				},
				{
					"filename": "GOL9.png",
					"rotated": false,
					"trimmed": false,
					"sourceSize": {
						"w": 130,
						"h": 114
					},
					"spriteSourceSize": {
						"x": 0,
						"y": 0,
						"w": 130,
						"h": 114
					},
					"frame": {
						"x": 134,
						"y": 117,
						"w": 130,
						"h": 114
					}
				},
				{
					"filename": "GOL10.png",
					"rotated": false,
					"trimmed": false,
					"sourceSize": {
						"w": 128,
						"h": 114
					},
					"spriteSourceSize": {
						"x": 0,
						"y": 0,
						"w": 128,
						"h": 114
					},
					"frame": {
						"x": 266,
						"y": 1,
						"w": 128,
						"h": 114
					}
				},
				{
					"filename": "GOL4.png",
					"rotated": false,
					"trimmed": false,
					"sourceSize": {
						"w": 127,
						"h": 114
					},
					"spriteSourceSize": {
						"x": 0,
						"y": 0,
						"w": 127,
						"h": 114
					},
					"frame": {
						"x": 266,
						"y": 117,
						"w": 127,
						"h": 114
					}
				},
				{
					"filename": "GOL11.png",
					"rotated": false,
					"trimmed": false,
					"sourceSize": {
						"w": 126,
						"h": 114
					},
					"spriteSourceSize": {
						"x": 0,
						"y": 0,
						"w": 126,
						"h": 114
					},
					"frame": {
						"x": 395,
						"y": 117,
						"w": 126,
						"h": 114
					}
				},
				{
					"filename": "GOL5.png",
					"rotated": false,
					"trimmed": false,
					"sourceSize": {
						"w": 126,
						"h": 114
					},
					"spriteSourceSize": {
						"x": 0,
						"y": 0,
						"w": 126,
						"h": 114
					},
					"frame": {
						"x": 396,
						"y": 1,
						"w": 126,
						"h": 114
					}
				},
				{
					"filename": "GOL1.png",
					"rotated": false,
					"trimmed": false,
					"sourceSize": {
						"w": 123,
						"h": 115
					},
					"spriteSourceSize": {
						"x": 0,
						"y": 0,
						"w": 123,
						"h": 115
					},
					"frame": {
						"x": 523,
						"y": 117,
						"w": 123,
						"h": 115
					}
				},
				{
					"filename": "GOL2.png",
					"rotated": false,
					"trimmed": false,
					"sourceSize": {
						"w": 123,
						"h": 114
					},
					"spriteSourceSize": {
						"x": 0,
						"y": 0,
						"w": 123,
						"h": 114
					},
					"frame": {
						"x": 524,
						"y": 1,
						"w": 123,
						"h": 114
					}
				},
				{
					"filename": "GOL12.png",
					"rotated": false,
					"trimmed": false,
					"sourceSize": {
						"w": 128,
						"h": 109
					},
					"spriteSourceSize": {
						"x": 0,
						"y": 0,
						"w": 128,
						"h": 109
					},
					"frame": {
						"x": 648,
						"y": 117,
						"w": 128,
						"h": 109
					}
				},
				{
					"filename": "GOL6.png",
					"rotated": false,
					"trimmed": false,
					"sourceSize": {
						"w": 128,
						"h": 109
					},
					"spriteSourceSize": {
						"x": 0,
						"y": 0,
						"w": 128,
						"h": 109
					},
					"frame": {
						"x": 649,
						"y": 1,
						"w": 128,
						"h": 109
					}
				}
			]
		}
	],
	"meta": {
		"app": "https://www.codeandweb.com/texturepacker",
		"version": "3.0",
		"smartupdate": "$TexturePacker:SmartUpdate:bc8d881ba9055218eb658f041fac9b0b:153703d8d291cc44edf5b7e993fd589a:cb1efabd826cac80a4b1caba71dd8d75$"
	}
}
