{
	"textures": [
		{
			"image": "JetRegular.png",
			"format": "RGBA8888",
			"size": {
				"w": 1667,
				"h": 99
			},
			"scale": 1,
			"frames": [
				{
					"filename": "JB11.png",
					"rotated": false,
					"trimmed": false,
					"sourceSize": {
						"w": 256,
						"h": 49
					},
					"spriteSourceSize": {
						"x": 0,
						"y": 0,
						"w": 256,
						"h": 49
					},
					"frame": {
						"x": 1,
						"y": 1,
						"w": 256,
						"h": 49
					}
				},
				{
					"filename": "JB13.png",
					"rotated": false,
					"trimmed": true,
					"sourceSize": {
						"w": 256,
						"h": 49
					},
					"spriteSourceSize": {
						"x": 0,
						"y": 2,
						"w": 256,
						"h": 45
					},
					"frame": {
						"x": 1,
						"y": 52,
						"w": 256,
						"h": 45
					}
				},
				{
					"filename": "JB4.png",
					"rotated": false,
					"trimmed": false,
					"sourceSize": {
						"w": 256,
						"h": 49
					},
					"spriteSourceSize": {
						"x": 0,
						"y": 0,
						"w": 256,
						"h": 49
					},
					"frame": {
						"x": 259,
						"y": 1,
						"w": 256,
						"h": 49
					}
				},
				{
					"filename": "JB3.png",
					"rotated": false,
					"trimmed": true,
					"sourceSize": {
						"w": 256,
						"h": 49
					},
					"spriteSourceSize": {
						"x": 0,
						"y": 2,
						"w": 256,
						"h": 45
					},
					"frame": {
						"x": 259,
						"y": 52,
						"w": 256,
						"h": 45
					}
				},
				{
					"filename": "JB5.png",
					"rotated": false,
					"trimmed": false,
					"sourceSize": {
						"w": 256,
						"h": 49
					},
					"spriteSourceSize": {
						"x": 0,
						"y": 0,
						"w": 256,
						"h": 49
					},
					"frame": {
						"x": 517,
						"y": 1,
						"w": 256,
						"h": 49
					}
				},
				{
					"filename": "JB8.png",
					"rotated": false,
					"trimmed": true,
					"sourceSize": {
						"w": 256,
						"h": 49
					},
					"spriteSourceSize": {
						"x": 0,
						"y": 2,
						"w": 256,
						"h": 45
					},
					"frame": {
						"x": 517,
						"y": 52,
						"w": 256,
						"h": 45
					}
				},
				{
					"filename": "JB6.png",
					"rotated": false,
					"trimmed": false,
					"sourceSize": {
						"w": 256,
						"h": 49
					},
					"spriteSourceSize": {
						"x": 0,
						"y": 0,
						"w": 256,
						"h": 49
					},
					"frame": {
						"x": 775,
						"y": 1,
						"w": 256,
						"h": 49
					}
				},
				{
					"filename": "JB14.png",
					"rotated": false,
					"trimmed": true,
					"sourceSize": {
						"w": 256,
						"h": 49
					},
					"spriteSourceSize": {
						"x": 0,
						"y": 4,
						"w": 256,
						"h": 40
					},
					"frame": {
						"x": 775,
						"y": 52,
						"w": 256,
						"h": 40
					}
				},
				{
					"filename": "JB12.png",
					"rotated": false,
					"trimmed": true,
					"sourceSize": {
						"w": 256,
						"h": 49
					},
					"spriteSourceSize": {
						"x": 0,
						"y": 0,
						"w": 256,
						"h": 48
					},
					"frame": {
						"x": 1033,
						"y": 1,
						"w": 256,
						"h": 48
					}
				},
				{
					"filename": "JB10.png",
					"rotated": false,
					"trimmed": true,
					"sourceSize": {
						"w": 256,
						"h": 49
					},
					"spriteSourceSize": {
						"x": 0,
						"y": 1,
						"w": 256,
						"h": 47
					},
					"frame": {
						"x": 1033,
						"y": 51,
						"w": 256,
						"h": 47
					}
				},
				{
					"filename": "JB7.png",
					"rotated": false,
					"trimmed": true,
					"sourceSize": {
						"w": 256,
						"h": 49
					},
					"spriteSourceSize": {
						"x": 0,
						"y": 0,
						"w": 256,
						"h": 48
					},
					"frame": {
						"x": 1291,
						"y": 1,
						"w": 256,
						"h": 48
					}
				},
				{
					"filename": "JB15.png",
					"rotated": false,
					"trimmed": true,
					"sourceSize": {
						"w": 256,
						"h": 49
					},
					"spriteSourceSize": {
						"x": 138,
						"y": 12,
						"w": 117,
						"h": 24
					},
					"frame": {
						"x": 1549,
						"y": 1,
						"w": 117,
						"h": 24
					}
				},
				{
					"filename": "JB9.png",
					"rotated": false,
					"trimmed": true,
					"sourceSize": {
						"w": 256,
						"h": 49
					},
					"spriteSourceSize": {
						"x": 0,
						"y": 1,
						"w": 256,
						"h": 47
					},
					"frame": {
						"x": 1291,
						"y": 51,
						"w": 256,
						"h": 47
					}
				},
				{
					"filename": "JB2.png",
					"rotated": false,
					"trimmed": true,
					"sourceSize": {
						"w": 256,
						"h": 49
					},
					"spriteSourceSize": {
						"x": 200,
						"y": 4,
						"w": 56,
						"h": 40
					},
					"frame": {
						"x": 1549,
						"y": 27,
						"w": 56,
						"h": 40
					}
				},
				{
					"filename": "JB16.png",
					"rotated": false,
					"trimmed": true,
					"sourceSize": {
						"w": 256,
						"h": 49
					},
					"spriteSourceSize": {
						"x": 195,
						"y": 13,
						"w": 59,
						"h": 22
					},
					"frame": {
						"x": 1607,
						"y": 27,
						"w": 59,
						"h": 22
					}
				},
				{
					"filename": "JB1.png",
					"rotated": false,
					"trimmed": true,
					"sourceSize": {
						"w": 256,
						"h": 49
					},
					"spriteSourceSize": {
						"x": 200,
						"y": 12,
						"w": 55,
						"h": 24
					},
					"frame": {
						"x": 1607,
						"y": 51,
						"w": 55,
						"h": 24
					}
				},
				{
					"filename": "JB0.png",
					"rotated": false,
					"trimmed": true,
					"sourceSize": {
						"w": 256,
						"h": 49
					},
					"spriteSourceSize": {
						"x": 234,
						"y": 16,
						"w": 18,
						"h": 17
					},
					"frame": {
						"x": 1549,
						"y": 77,
						"w": 18,
						"h": 17
					}
				},
				{
					"filename": "JB17.png",
					"rotated": false,
					"trimmed": true,
					"sourceSize": {
						"w": 256,
						"h": 49
					},
					"spriteSourceSize": {
						"x": 234,
						"y": 16,
						"w": 18,
						"h": 17
					},
					"frame": {
						"x": 1549,
						"y": 77,
						"w": 18,
						"h": 17
					}
				}
			]
		}
	],
	"meta": {
		"app": "https://www.codeandweb.com/texturepacker",
		"version": "3.0",
		"smartupdate": "$TexturePacker:SmartUpdate:96f6c6be7198863cec6c1bcd5c9a324c:1565304d5736e8078168563bfb0c6a08:e2e01576837b2d2a8c81524bf3b98fe8$"
	}
}
